<?xml version="1.0" encoding="iso-8859-1"?>
<!-- Generator: Adobe Illustrator 19.0.0, SVG Export Plug-In . SVG Version: 6.00 Build 0)  -->
<svg version="1.1" id="Capa_1" xmlns="http://www.w3.org/2000/svg" xmlns:xlink="http://www.w3.org/1999/xlink" x="0px" y="0px"
	 viewBox="0 0 480 480" style="enable-background:new 0 0 480 480;" xml:space="preserve">
<g>
	<g>
		<path d="M192,196h16c0-17.6,14.4-32,32-32v-16C213.6,148,192,169.6,192,196z"/>
	</g>
</g>
<g>
	<g>
		<path d="M472,404h-8V116c0-17.6-14.4-32-32-32h-56V44c0-17.6-14.4-32-32-32H136c-17.6,0-32,14.4-32,32v40H48
			c-17.6,0-32,14.4-32,32v288H8c-4.8,0-8,3.2-8,8v24c0,17.6,14.4,32,32,32h416c17.6,0,32-14.4,32-32v-24
			C480,407.2,476.8,404,472,404z M376,140h32v216h-32V140z M120,44c0-8.8,7.2-16,16-16h208c8.8,0,16,7.2,16,16v32H120V44z M120,92
			h240v264h-96v-48c0-4.8-3.2-8-8-8h-8v-24.8c40.8-4,72-38.4,72-79.2c0-44-36-80-80-80s-80,36-80,80c0,41.6,31.2,75.2,72,79.2V300
			h-8c-4.8,0-8,3.2-8,8v48h-96V92z M240,260c-35.2,0-64-28.8-64-64s28.8-64,64-64s64,28.8,64,64S275.2,260,240,260z M248,316v40h-16
			v-40H248z M32,116c0-8.8,7.2-16,16-16h56v24H64c-4.8,0-8,3.2-8,8v232c0,4.8,3.2,8,8,8h352c4.8,0,8-3.2,8-8V132c0-4.8-3.2-8-8-8
			h-40v-24h56c8.8,0,16,7.2,16,16v288H312c-2.4,0-4,0.8-5.6,2.4L292.8,420H187.2l-13.6-13.6c-1.6-1.6-3.2-2.4-5.6-2.4H32V116z
			 M104,140v216H72V140H104z M464,436c0,8.8-7.2,16-16,16H32c-8.8,0-16-7.2-16-16v-16h148.8l13.6,13.6c1.6,1.6,3.2,2.4,5.6,2.4h112
			c2.4,0,4-0.8,5.6-2.4l13.6-13.6H464V436z"/>
	</g>
</g>
<g>
	<g>
		<rect x="232" y="388" width="16" height="16"/>
	</g>
</g>
<g>
	<g>
		<rect x="136" y="44" width="16" height="16"/>
	</g>
</g>
<g>
	<g>
		<rect x="168" y="44" width="16" height="16"/>
	</g>
</g>
<g>
	<g>
		<rect x="200" y="44" width="16" height="16"/>
	</g>
</g>
<g>
	<g>
		<path d="M260.8,153.6l-7.2,13.6c4,1.6,7.2,4.8,10.4,8l12-10.4C272,160,266.4,156,260.8,153.6z"/>
	</g>
</g>
<g>
</g>
<g>
</g>
<g>
</g>
<g>
</g>
<g>
</g>
<g>
</g>
<g>
</g>
<g>
</g>
<g>
</g>
<g>
</g>
<g>
</g>
<g>
</g>
<g>
</g>
<g>
</g>
<g>
</g>
</svg>
